1 10 20
100 200 125
201 210 89
900 1000 174
186693 189786 347
306830 636386 509
921303 446892 525
337461 307678 384
433071 914345 525
417767 590652 470
207555 507072 449
998279 501677 525
354849 21089 443
182410 941796 525
837966 541838 525
723782 62553 509
991516 792924 525
446127 895641 525
641658 961911 525
234076 286043 407
451447 654097 509
76167 320231 443
92305 414382 449
917389 320802 525
686890 473965 509
325319 715242 509
226678 158040 386
457833 431180 400
249685 499734 449
425012 53419 449
486352 803663 509
698183 79214 509
421614 620770 470
198486 561114 470
314184 580752 470
101622 181571 383
383966 838303 525
388069 309702 441
143839 857637 525
902955 460311 525
437634 909652 525
106643 646496 509
998574 655372 525
801150 826082 450
449488 143802 449
767020 987320 525
133195 212132 383
353583 260348 441
857245 41157 525
573709 96917 470
72590 286529 443
236555 849573 525
13737 698088 509
258219 764477 509
892796 41465 525
536581 688852 509
38119 998042 525
188661 69462 383
652032 203952 509
282422 457672 449
980876 973447 383
300292 109739 443
540426 257162 470
8813 536436 470
575792 770766 509
395584 265881 441
299343 435986 449
436488 426723 387
145900 929325 525
545933 530498 408
968117 665927 525
760308 75132 509
264715 654395 509
866128 198592 525
664694 993174 525
377464 700641 509
61512 678689 509
17021 932230 525
582546 110023 470
566640 772701 509
1592 457852 449
985497 189768 525
619235 91587 470
989048 810378 525
682369 961073 525
1937 128452 354
647515 153790 509
567490 538547 452
334786 689600 509
964903 691904 525
751477 508842 509
985829 193783 525
553391 80237 470
44413 567987 470
941704 141661 525
787500 424025 509
809530 896826 525
171155 118861 383
690043 179234 509
414524 674587 509
96799 693417 509
226629 469201 449
199472 300934 443
727563 533744 509
77251 336254 443
834855 255177 509
546244 907521 525
953294 194458 525
323426 538764 470
126061 732206 509
658080 481230 509
354921 126870 443
5239 351860 443
166260 90482 383
348162 986726 525
180442 32156 383
36541 78085 351
378612 2462 443
166908 811068 509
514284 503026 470
789448 179931 509
747312 602810 509
597014 456301 470
982482 474113 525
376719 619370 470
318938 212273 443
888377 488772 525
860892 654777 525
725133 777179 468
566187 688874 509
348582 42282 443
812598 312499 509
206997 66348 383
841673 847640 419
512152 162966 470
224833 680358 509
515009 123274 470
709457 537552 509
96016 552592 470
59276 823145 509
921550 259858 525
803105 959339 525
278019 428643 449
459770 954040 525
274830 469627 449
60540 905359 525
941286 358296 525
583221 164093 470
638133 150852 509
667134 127768 509
226839 630694 509
344026 926770 525
626365 922277 525
631678 535212 509
121751 417541 449
65167 112387 354
939524 810211 525
450026 434820 400
89673 957792 525
923101 985908 507
787957 402365 509
425020 339323 449
485215 884770 525
638328 834930 504
582964 461061 470
501470 76342 449
241082 732757 509
885531 549251 525
706762 678507 504
446968 747529 509
720372 429451 509
48090 863832 525
318100 749424 509
571099 885828 525
973753 709359 525
844463 179303 525
537802 452606 470
887982 160532 525
209372 473034 449
526917 795618 509
316207 113578 443
707024 929066 525
409830 369486 436
240763 455852 449
824972 202717 509
301846 982364 525
734051 618906 509
190077 832577 509
670611 636330 442
227790 231458 443
958541 10623 525
958599 793361 525
738168 656167 504
603546 88032 470
789383 666506 504
202358 929902 525
397941 584276 470
810390 755897 468
26793 428885 449
113533 568860 470
391896 374919 436
631054 805961 504
560268 199765 470
263838 26596 443
849340 343279 525
