458158 288779 449
640177 827364 504
264856 922674 525
651714 578842 509
279986 816632 509
564810 507372 470
366544 537115 470
831010 723337 468
346062 883736 525
732069 567909 509
641918 477434 509
392475 39925 443
996877 119612 525
799855 297567 509
109594 663832 509
756880 845323 525
935634 890072 476
937349 75553 525
966877 593505 525
371264 959353 525
559210 191117 470
48462 280876 443
646622 289225 509
894579 83979 525
222524 786718 509
785628 184739 509
571931 308802 470
649224 510373 509
544365 204269 470
961117 587065 525
752838 977087 525
841676 57188 525
496785 725135 509
164592 930653 525
421130 106533 449
180592 459597 449
50717 368313 443
324087 575268 470
677868 500606 509
682852 334692 509
139081 138150 313
894728 192234 525
388720 641669 509
486068 818187 509
103184 880265 525
810401 44873 509
851942 375456 525
323544 150957 443
900567 571182 525
954769 737404 525
79139 621903 470
586323 932264 525
826461 8468 509
978505 656155 525
947615 231535 525
777936 739471 468
460273 15564 449
446779 622480 470
55371 984350 525
846622 156776 525
512897 959751 525
218830 573727 470
586549 109015 470
609303 707490 509
632651 859882 525
884565 404459 525
538388 674199 509
53407 462322 449
498502 214138 449
41213 735817 509
230789 464901 449
387071 367055 423
759101 539518 509
726322 973122 525
980065 892481 507
384067 519255 470
464363 991715 525
495226 493446 395
158325 611401 470
609385 545290 452
133720 775319 509
831972 775344 468
220030 662762 509
381806 366167 423
29594 374691 443
400504 939254 525
828775 899344 525
336811 485862 449
18749 861541 525
605877 281821 470
70158 593434 470
205194 663676 509
245559 113060 443
798304 253469 509
576031 325358 470
68795 737725 509
671795 879694 525
497051 485618 426
638484 871533 525
455701 430778 400
756918 895493 525
461321 586877 470
512584 186175 470
977947 857703 507
11403 140711 354
489162 122910 449
860086 204932 525
327457 890712 525
931175 666009 525
47406 33563 324
949922 765976 525
64185 936019 525
105376 644472 509
917316 553721 525
251669 341237 407
331809 681659 509
598442 401869 470
106501 476593 449
149791 597499 470
940421 675541 525
832149 784942 468
295875 890771 525
393891 654273 509
391449 260406 441
486289 163012 449
146924 484439 449
836227 827094 419
421192 524487 470
961820 454241 525
52518 294910 443
999646 49658 525
236101 26719 443
27477 912442 525
96634 443848 449
841570 520921 525
500934 744572 509
52534 343386 443
78337 896345 525
625125 772539 509
719163 921811 525
410403 657187 509
852386 371935 525
43607 294949 443
475822 723850 509
844383 447394 525
315124 42394 443
571564 160676 470
906955 661743 525
525781 630719 509
408458 30072 443
709950 258562 509
710868 789358 468
600993 489138 470
213426 931878 525
594718 983397 525
643018 740656 504
364569 677923 509
263984 718074 509
347987 659973 509
126239 851615 525
453274 154532 449
8698 42590 324
422811 127436 449
369838 462357 449
273063 542136 470
299755 809473 509
802457 737788 468
458085 301763 449
853815 723148 525
602366 254276 470
226860 552855 470
216419 886035 525
888307 819004 525
454528 57695 449
153493 156830 383
309759 938161 525
732805 513496 509
822188 457959 509
603635 320421 470
100789 271482 443
273108 739923 509
320798 995320 525
4528 936473 525
728337 404580 509
526654 411826 470
242325 279614 407
449578 447815 369
310485 538972 470
110633 73184 354
740858 876746 525
693744 216702 509
202338 36814 383
459200 322033 449
655436 944009 525
664987 124819 509
386962 47475 443
22911 165762 383
40772 677641 509
171989 660347 509
34720 460665 449
