1 10 20
100 200 125
201 210 89
900 1000 174
908289 508479 525
757359 194582 509
860650 846747 419
641603 526977 509
25888 384292 443
510676 130745 449
415686 114393 449
986060 324677 525
158867 553138 470
620420 656368 509
144810 333882 443
2326 147331 375
875711 825842 525
73508 490935 449
826902 125079 509
943003 166712 525
327024 279985 389
689950 535661 509
837924 104388 525
793907 592496 509
690798 725282 504
970408 224162 525
202388 988079 525
521813 877624 525
601363 744821 509
696651 897111 525
604591 945713 525
482644 30153 449
618088 774725 509
739954 556267 509
430953 497577 444
549117 197669 470
911813 735682 525
741128 731921 424
675798 259782 509
252856 844350 525
688331 805035 504
138883 607295 470
123221 611038 470
353451 446617 449
645853 710458 504
249339 570006 470
293921 746078 509
664552 308888 509
286965 849658 525
465477 563924 470
158718 129225 383
713282 661928 504
341312 506647 449
419534 619550 470
914506 808935 525
961633 80203 525
354095 892579 525
609309 63855 470
993092 911446 507
13116 158709 383
902620 716780 525
569491 103685 470
945237 548059 525
508777 236137 449
22714 297789 443
541105 287571 470
265043 81651 443
215469 434263 449
342512 827032 509
254820 238869 368
624500 304028 470
266726 140223 443
475458 366822 449
74408 988976 525
793761 367910 509
55963 530311 470
464937 542931 470
425950 803058 509
312332 319115 353
410130 947631 525
352273 453665 449
619837 599394 447
457179 424524 400
236348 611363 470
563718 991114 525
144570 336505 443
205734 937069 525
431746 676876 509
928358 983903 507
868535 771860 525
243309 823863 509
802889 752722 468
922788 655996 525
247685 631076 509
725085 850987 525
795423 752047 468
43389 305939 443
260783 384897 441
148577 535375 470
469850 892969 525
644468 793048 504
50288 405162 443
114096 243569 443
97074 790665 509
97683 213031 383
608645 295274 470
998707 820909 525
106920 190048 383
985878 726020 525
180004 662209 509
115807 631454 509
973723 278014 525
205447 693071 509
86733 104066 341
417868 98594 449
398834 743519 509
124533 689544 509
593532 514882 452
345094 356448 441
540930 321551 470
624308 414549 470
595887 232338 470
663834 546636 509
820351 439612 509
689268 647941 442
508690 473324 426
193960 418113 449
606886 97105 470
181277 490727 449
149734 619719 470
654609 907184 525
14229 179484 383
23165 23540 282
370154 564277 470
351217 331169 441
158623 622978 470
892239 767477 525
335312 613919 470
688554 362996 509
878126 952761 507
784072 966711 525
25896 251931 443
798421 280718 509
831190 455202 509
245626 219003 443
292290 413063 449
786153 856892 525
704454 706383 504
900001 747444 525
434193 366054 449
21414 231706 443
426519 786486 509
790286 163033 509
915999 514665 525
35908 964561 525
187624 425957 449
472525 884603 525
925499 446974 525
814864 805900 406
667864 51338 509
390749 661816 509
94213 720986 509
69991 251522 443
112861 829280 509
997843 916444 507
559197 435278 470
75836 295188 443
977088 939629 458
341416 406276 441
959126 549333 525
282567 939030 525
876324 121096 525
87738 898095 525
878543 213116 525
881428 16067 525
168640 345586 443
788524 639948 504
785428 352547 509
143155 485337 449
491011 395482 449
165631 451039 449
922208 909667 476
289338 443398 449
215166 148714 383
61769 560606 470
129668 51174 354
24960 85964 351
116943 237949 443
526686 522010 408
668323 618400 509
907256 876170 445
369629 141341 443
790279 41371 509
159833 934608 525
825078 80507 509
827135 139094 509
923151 19873 525
77794 652379 509
420087 567426 470
124221 115088 349
614801 91496 470
855167 533682 525
865042 820839 525
874632 568545 525
427049 130729 449
75091 560428 470
322968 195274 443
577755 653697 509
834812 207347 509
268776 287714 407
532957 348738 470
239575 59168 443
140774 684086 509
532463 634702 509
204315 299753 443
717526 85955 509
874851 103841 525
663880 339974 509
161003 959999 525
376370 851829 525
511740 294286 449
490118 268743 449
179348 111565 383
173614 339534 443
563277 189055 470
709373 581085 509
556868 385055 470
877994 249360 525
467209 91252 449
555623 792116 509
926194 966451 507
229022 373215 443
279993 222592 443
164960 290483 443
558922 330227 470
441468 53482 449
365546 744077 509
96388 768400 509
481637 803184 509
393969 519453 470
954500 112221 525
207471 750926 509
403391 698769 509
564401 370581 470
897640 11879 525
626279 552869 447
427627 244972 449
156559 445445 449
535131 2124 470
42510 940683 525
766055 281416 509
586892 381301 470
57876 365214 443
790398 960931 525
224529 326194 443
618699 445565 470
489879 460445 444
599336 409780 470
459515 606738 470
126052 579473 470
108337 603573 470
176213 109408 383
347499 89743 443
544930 528670 408
660452 650615 429
393262 990282 525
590060 389900 470
802170 633306 504
927843 974386 507
431906 592831 470
721602 45313 509
845551 506383 525
523603 821744 509
211452 809487 509
914937 152437 525
69809 319645 443
981158 512747 525
614524 923718 525
522041 949963 525
112242 528481 470
435837 529859 470
560348 262370 470
207938 101659 383
818821 703488 504
96628 14839 351
874585 525300 525
336739 455232 449
653857 732882 504
616635 178824 470
491633 361522 449
15000 37033 324
451071 594875 470
839471 609002 525
985854 349974 525
496823 598353 470
723381 704000 504
889919 302489 525
876985 842001 432
642109 165506 509
813001 358287 509
954603 242242 525
602125 208984 470
365568 212896 443
398386 914120 525
856128 766641 525
139131 116767 344
317439 411669 449
647473 787614 504
573200 800428 509
285558 671271 509
505870 416774 444
61542 739245 509
812893 954253 525
875394 284035 525
51373 986391 525
404744 278797 441
768330 487865 509
806383 192385 509
114412 939105 525
320239 403223 441
988892 804690 525
385713 120332 443
637274 582715 509
453889 963556 525
957392 919339 507
141086 480709 449
836640 78821 509
531120 847745 525
323272 145122 443
214818 466306 449
454058 796128 509
118327 627151 509
801043 113099 509
604364 388023 470
14593 228621 386
955178 912969 507
822736 387553 509
360871 470645 449
743942 754303 424
371372 954836 525
823778 393551 509
253858 307983 407
435758 47005 449
103165 447332 449
692932 521020 509
810957 459705 509
355216 720111 509
440642 954896 525
846451 709358 525
800940 624943 509
325971 87340 443
853479 982757 507
386922 61852 443
440639 504053 444
612818 33126 470
336505 503864 449
633082 730714 504
64319 905645 525
704041 124377 509
688631 615144 509
25047 402312 443
495096 629850 509
223128 595857 470
157369 182709 370
447409 645878 509
29873 643670 509
304716 269965 407
13420 765080 509
984853 938672 507
329058 543605 470
459107 218497 449
86580 292285 443
710144 246812 509
733182 991630 525
938171 974847 507
455398 895057 525
944518 333818 525
967649 679428 525
468513 402030 449
422992 148643 449
177572 337870 443
211485 195873 373
699035 110261 509
340924 124235 443
629682 727384 504
64426 753527 509
722212 733118 411
377207 299356 441
951262 873806 507
978200 618294 525
785255 856615 525
996474 427532 525
592229 183351 470
382754 849436 525
411277 415948 374
388358 124229 443
7987 980996 525
369 797978 509
900691 271670 525
282252 291904 389
848599 680873 525
411556 56179 449
851800 782006 525
282121 750696 509
296372 302399 371
655642 168716 509
544301 459758 470
447290 735056 509
689283 540266 509
486663 590349 470
339110 209322 443
588945 741435 509
677817 525117 509
768886 824078 468
890268 597693 525
730056 123315 509
959710 143281 525
666119 406216 509
989332 77592 525
350341 341926 441
677065 486970 509
850 507684 449
605396 363620 470
872396 274821 525
679362 273225 509
569734 290147 470
772711 41401 509
878101 517816 525
217958 406846 443
881974 683051 525
259306 859091 525
400432 920428 525
606896 608437 403
176473 79774 383
430681 978322 525
567577 370419 470
115118 167412 383
940820 357772 525
936361 996960 507
879965 870355 432
149388 256184 443
852311 408563 525
162608 440825 449
72265 33585 340
700196 68044 509
461316 918224 525
480497 93693 449
313078 90872 443
248760 13855 443
591808 929316 525
170996 200786 365
376665 554240 470
28220 527199 470
561327 788739 509
284007 783823 509
426893 911601 525
437019 247268 449
509253 494559 426
285988 684910 509
580474 931627 525
175398 681522 509
112271 451299 449
517771 50863 470
49348 725235 509
874123 616192 525
511432 630057 509
233289 814331 509
559993 521280 452
505057 243147 449
353650 600018 470
264631 123790 443
175967 144529 383
809270 872691 525
219792 14147 386
582908 711947 509
552506 399839 470
765873 727305 424
250183 803886 509
361234 595850 470
807133 338248 509
69252 794567 509
277534 210582 443
873753 272785 525
583864 668780 509
862549 128227 525
847385 21836 525
556932 584706 434
196549 449944 449
67288 356779 443
536234 866147 525
665262 512526 509
782688 780793 362
230211 969678 525
131943 109671 349
795834 113289 509
887766 343905 525
705983 116968 509
300841 172790 443
723441 688641 504
345024 187614 443
941666 972124 458
8848 955736 525
989103 98848 525
910576 77196 525
