1 891833 525
2 138103 354
3 290286 443
4 637699 509
5 934423 525
6 371828 443
7 820882 509
8 903610 525
9 764800 509
10 913549 525
11 726677 509
12 2621 209
13 369359 443
14 161142 383
15 755409 509
16 519072 470
17 316315 443
18 970156 525
19 753511 509
20 415201 449
21 508042 449
22 729502 509
23 873979 525
24 180000 383
25 572558 470
26 490638 449
27 113861 354
28 458778 449
29 45426 324
30 784810 509
31 281900 443
32 148798 375
33 868942 525
34 770702 509
35 250905 443
36 571502 470
37 412636 449
38 240871 443
39 80248 351
40 161679 383
41 659944 509
42 977810 525
43 821257 509
44 262594 443
45 628632 509
46 502628 449
47 312495 443
48 915462 525
49 350858 443
50 707039 509
51 444019 449
52 246783 443
53 541517 470
54 571221 470
55 366910 443
56 729130 509
57 305384 443
58 894881 525
59 673095 509
60 730959 509
61 869029 525
62 890475 525
63 476051 449
64 20236 279
65 394496 443
66 536092 470
67 742161 509
68 513718 470
69 751223 509
70 529684 470
71 905512 525
72 515414 470
73 768316 509
74 417945 449
75 915588 525
76 746558 509
77 600011 470
78 13228 268
79 664026 509
80 446431 449
81 409887 443
82 402789 443
83 309930 443
84 787009 509
85 300011 443
86 785905 509
87 289515 443
88 709502 509
89 138135 354
90 199827 383
91 735726 509
92 751266 509
93 918177 525
94 809193 509
95 214796 383
96 608259 470
97 265202 443
98 117960 354
99 841032 525
100 112386 354
101 854111 525
102 851879 525
103 251702 443
104 430909 449
105 961146 525
106 749701 509
107 384777 443
108 963590 525
109 732253 509
110 370117 443
111 109207 354
112 314922 443
113 611883 470
114 191035 383
115 380937 443
116 332045 443
117 912028 525
118 273384 443
119 779158 509
120 43815 324
121 689463 509
122 128688 354
123 29819 308
124 829860 509
125 775257 509
126 320730 443
127 656136 509
128 160648 383
129 695925 509
130 47348 324
131 584685 470
132 878194 525
133 121055 354
134 101321 351
135 653433 509
136 209187 383
137 997980 525
138 413639 449
139 595541 470
140 889541 525
141 451816 449
142 386777 443
143 286167 443
144 96394 351
145 948891 525
146 885116 525
147 131626 354
148 753559 509
149 566343 470
150 742954 509
151 465108 449
152 99849 351
153 913801 525
154 988679 525
155 869771 525
156 217755 386
157 759205 509
158 579223 470
159 788704 509
160 915270 525
161 752249 509
162 588921 470
163 631192 509
164 79227 351
165 765637 509
166 567087 470
167 221276 386
168 746403 509
169 8670 262
170 462942 449
171 748506 509
172 775882 509
173 118540 354
174 270440 443
175 436943 449
176 371750 443
177 203457 383
178 155092 375
179 74392 340
180 794674 509
181 33283 308
182 671850 509
183 587497 470
184 200893 383
185 208493 383
186 788831 509
187 347531 443
188 894683 525
189 340854 443
190 803020 509
191 91850 351
192 521934 470
193 909326 525
194 6361 262
195 137889 354
196 791995 509
197 673696 509
198 215674 383
199 487452 449
200 662425 509
