1 10 20
100 200 125
201 210 89
900 1000 174
1 101 119
100 200 125
201 210 89
900 1000 174
5 550 144
465 985 179
7 10 20
300 20 128
335 333 113
98765 98765 54
65535 1024 340
2048 4096 238
3 1 8
4 1 8
5 9 20
2 6 9
5 8 17
801 803 60
1 801 171
3 803 171
465 466 85
673 682 114
1024 1024 11
2 1024 179
1 9999 262
319999 99999 443
850000 851000 357
851000 850000 357
200 210 89
2019 2023 157
2015 2019 113
2020 2024 157
2016 2020 113
3 10 20
2019 2020 113
8 100 119
5 8 17
8 2 17
3 100 119
800 872 179
872 7245 262
99999 1 351
500 501 111
1 3 8
5 7 17
9 11 20
4 8 17
8 12 20
12 16 18
16 20 21
20 15 21
946 9421 262
123 456 144
789 1011 179
1213 1415 177
1617 1819 180
2021 2223 183
2425 2627 209
2829 3031 217
3132 3334 199
3536 3738 238
3940 4041 189
4042 4043 65
4987 7896 262
1615 9874 262
3450 489498 449
122112 3223 354
150 708 171
654 540 145
327 4098 238
654564 545454 509
2121 2121 108
1221 212 182
1337 1 182
420 1 144
609 1 144
465 456 129
78910 111213 354
14 15 18
161718 1920 383
125 136 122
456 589 142
412 420 134
370 3581 217
40000 38525 306
121 99999 351
45 45000 324
1 10000 262
2 222222 386
5 58798 340
6 66 113
7 77 116
8 88 116
9 99 119
10 101 119
5 55 113
88888 8888 351
10 98765 351
43 210 125
104 5 119
301 58879 340
4465 45452 324
999999 999998 259
15051 64654 340
213212 105010 383
222 2222 182
111 1 119
112 5 119
113 567 144
12 2 20
123 6 119
1234 24 182
5 120 119
6 720 171
8 1616 182
9 876 179
5 50 112
4 65 113
9 87 116
9 85 116
9 83 116
80 1 116
80 3 116
3 33 112
33 3 112
3 35 112
35 3 112
9876 5432 262
102 105 88
108 111 114
112 154 122
201 208 89
9587 9999 242
10000 10585 255
10101 10011 224
10111 11101 268
1111 1 179
1101 10 179
11 1100 179
1100 12 179
1001 9 179
1111 15 179
10101 101010 351
11000 111 268
111000 111 354
1111 11 179
9465 2198 262
4358 6419 262
1548 2424 183
48 452 144
4 23 21
35868 52 324
54 34 113
2727 1231 209
2 232 128
8 636 144
57 52 113
123 252 128
8 33 112
7 37 112
57 352 144
5 34 112
111 524 144
2525 7564 262
242 674 145
222 999 179
777 888 179
1515 5151 238
66 676 145
242 2420 183
123 987 179
696 111 145
222 969 179
2323 2121 183
3806 3422 238
1332 1777 180
3326 1414 217
232323 565656 470
243 756 171
1231 7865 262
141414 178787 383
898989 989898 507
22454 33874 308
1312 1314 115
555 7 144
222 43 125
896 3 179
3 7 17
1414 5377 238
123 400 144
456 700 145
789 1000 179
83689 71736 351
1513 3243 217
199 200 120
1 999999 525
