627221 103771 509
391088 672621 509
377874 259452 441
890774 456470 525
542807 307164 470
844443 732198 525
903313 520372 525
778794 187312 509
182658 261149 443
405838 970852 525
432677 970818 525
200268 66819 383
385547 775006 509
764734 739188 424
615601 128807 470
341607 470542 449
267524 204693 443
236617 784623 509
894200 833235 525
475173 311583 449
844405 357522 525
768525 101661 509
908737 978762 507
269379 228543 443
385969 430751 449
863273 90514 525
886995 324879 525
809256 387844 509
222529 403908 443
215481 300765 443
253723 573410 470
482170 164365 449
177242 286170 443
35030 641355 509
104912 279011 443
171065 694174 509
882212 63860 525
597557 944752 525
199035 626897 509
790650 633098 504
828753 496302 509
579263 460713 470
432037 348650 449
220866 810219 509
452134 137518 449
563279 169736 470
593044 322024 470
510218 754222 509
20106 491440 449
93594 929227 525
448030 355124 449
360114 313771 441
829008 755395 468
528316 167111 470
902941 2911 525
109763 920410 525
520573 148049 470
992396 667280 525
347018 95821 443
843007 17931 525
389343 5438 443
978121 758826 525
871321 473385 525
580010 169822 470
813949 874247 525
728128 301834 509
767303 249325 509
949224 464070 525
314223 599937 470
215231 188313 373
964344 578642 525
717039 316582 509
299800 438095 449
356312 601266 470
596834 342106 470
934661 678458 525
776477 455099 509
230489 482112 449
648721 729753 504
982830 622667 525
316711 703247 509
664584 801142 504
49441 401656 443
970638 976385 383
322975 924964 525
76830 555756 470
426614 502221 444
18278 510399 449
639723 849829 525
890830 110423 525
12940 425482 449
466056 958855 525
627476 321789 509
493554 19927 449
268253 626464 509
183759 715156 509
888539 255953 525
395362 366325 436
818944 352150 509
598807 950620 525
638010 551060 509
230510 353403 443
874402 32448 525
836911 888294 525
505372 9955 449
729674 532877 509
634680 598067 509
512779 458352 470
324292 742453 509
663793 636865 429
375074 465950 449
163824 143974 383
142469 646965 509
624782 675514 509
494223 855210 525
584750 48120 470
180168 71813 383
210767 922306 525
143382 63845 375
676911 804046 504
657108 920979 525
343553 67767 443
212432 275706 443
230278 190911 386
245457 211054 443
382801 439391 449
750234 628607 504
401088 838283 525
78653 920251 525
328999 762148 509
472701 758604 509
713852 852375 525
400980 897107 525
205948 180556 360
484020 356334 449
929965 575750 525
487489 647953 509
322009 910861 525
866593 49104 525
692830 28702 509
662713 176658 509
41045 94598 351
970263 835763 525
654657 986412 525
724113 485541 509
699173 178231 509
491206 614971 470
259130 503940 449
941458 589435 525
617591 829575 509
810369 209211 509
218939 76770 386
531891 864844 525
55440 539585 470
457533 58973 449
202182 952202 525
431337 103500 449
913630 328053 525
686244 87326 509
384630 327009 441
50735 385337 443
330632 447745 449
464932 688595 509
291746 708146 509
93001 424532 449
850236 39558 525
285309 402129 441
54438 578051 470
99959 431227 449
559731 544032 452
853495 382995 525
974347 90210 525
768084 618557 509
246817 977075 525
649745 212739 509
481654 43725 449
276000 446497 449
416480 402544 449
62712 165686 383
410806 95568 449
344025 112614 443
859326 937393 476
380827 754276 509
855448 160798 525
286290 789070 509
473107 745147 509
401240 282673 441
707982 288241 509
502787 906575 525
818895 205552 509
939244 98200 525
399822 403061 387
18391 789818 509
339151 743698 509
113369 591759 470
886290 197413 525
865918 163848 525
270974 636880 509
516163 721999 509
696327 327176 509
