249330 624198 470
895744 411439 525
951125 331498 525
846307 658316 525
8238 432510 449
764697 839042 525
806676 335492 509
712752 492564 509
464723 27714 449
689396 548312 509
920086 443474 525
676076 196032 509
897090 634997 525
482991 531227 470
913561 12475 525
849064 493144 525
220286 237313 443
180495 947383 525
244277 755314 509
545685 93453 470
542819 711343 509
651748 513011 509
442634 843695 525
800985 486570 509
432848 499213 444
332914 636610 509
267150 676758 509
234463 477726 449
988288 963205 458
937495 850408 476
771961 276127 509
738411 312693 509
160657 186235 365
16758 2596 276
182088 321710 443
8730 964010 525
553753 404845 470
489254 171608 449
14362 678877 509
89175 899465 525
84389 685701 509
872016 643350 525
327816 121700 443
11136 665811 509
37921 96535 351
852938 878910 432
113911 723000 509
441691 30767 449
626659 505341 509
482516 583596 470
687426 209718 509
7726 490751 449
416462 433051 418
31419 880476 525
710151 327273 509
23766 677165 509
153920 352983 443
495762 102903 449
496012 721390 509
519779 364403 470
471714 292387 449
216150 359636 443
724572 869465 525
221678 977789 525
182121 148082 383
405350 223661 443
915275 317755 525
701134 686506 442
380333 812690 509
365282 227272 443
581566 787368 509
526231 212535 470
708745 893300 525
392705 269061 441
306149 276311 389
509786 169148 449
224568 295816 443
949299 510191 525
779535 912793 525
427612 967177 525
677922 708086 504
884862 697000 525
994313 789547 525
922079 755853 525
420378 428600 418
918436 99678 525
306875 79917 443
526998 141850 470
653647 736891 504
627157 630417 341
296742 478844 449
334331 185994 443
485955 284986 449
893439 42570 525
228780 733751 509
270642 47306 443
849765 627855 525
362584 941124 525
697811 197100 509
570243 35423 470
198198 255771 443
266465 520696 470
514309 715847 509
983141 268052 525
323468 44243 443
407842 106864 443
920961 251530 525
424621 749842 509
884384 153129 525
709658 982201 525
730306 746892 424
730373 533358 509
745272 688970 504
7734 421281 449
317003 995037 525
795050 228014 509
229367 103058 386
556991 479220 470
789102 421143 509
304637 551201 470
488583 494661 426
785875 157921 509
732453 844619 525
768025 47942 509
985101 655470 525
635955 591470 509
715257 372493 509
451733 496888 444
859520 499751 525
460876 862706 525
11344 907432 525
354417 951544 525
708530 919176 525
447161 710865 509
677351 191170 509
951827 367869 525
818335 266632 509
511571 326394 449
368308 485356 449
228191 406603 443
531768 239117 470
15584 28806 308
343450 809024 509
25003 956077 525
553129 96247 470
499590 840811 525
535973 819921 509
957946 462033 525
733152 837520 468
394629 691159 509
744329 818457 468
53303 993407 525
195522 146376 383
402883 912968 525
663939 790599 504
410229 693092 509
130292 142929 375
80235 504878 449
914741 963476 507
336253 519869 470
88451 755151 509
775468 70553 509
325016 899369 525
963671 91492 525
440410 887658 525
895013 460345 525
84342 855500 525
114870 503770 449
986026 213624 525
283937 483103 449
60341 299295 443
357155 185415 443
991197 735276 525
605113 46567 470
807128 656207 504
667091 251995 509
496226 4986 449
221045 369313 443
791556 881503 525
114303 248261 443
789286 157738 509
391823 65157 443
290489 447199 449
852408 139492 525
107939 707455 509
434948 112121 449
271344 720630 509
924996 393302 525
136427 881717 525
885887 421210 525
862219 400351 525
596022 36403 470
721203 465226 509
833022 887362 525
361990 975044 525
649842 795118 504
746482 20318 509
662047 150611 509
247067 600284 470
77972 864805 525
