542546 521445 408
330511 754415 509
541148 897962 525
346706 646016 509
960668 498102 525
821983 413706 509
984519 449565 525
204549 219087 386
405920 866280 525
28678 109338 354
713434 505860 509
598822 819379 509
814812 861666 525
29879 155729 375
815224 10000 509
27795 153458 375
410616 842982 525
791494 802870 468
404297 743455 509
174231 91776 383
500467 726588 509
996335 232562 525
959413 726260 525
732781 506006 509
544569 150851 470
57224 517184 470
934839 213203 525
751983 206977 509
135871 191744 383
253068 16504 443
906229 30212 525
736751 852489 525
415314 225586 449
181523 111255 383
786193 343593 509
733237 705311 411
953285 424651 525
607000 127035 470
462725 799515 509
25509 52807 340
39441 355762 443
676684 400000 509
161531 817092 509
192341 874184 525
842952 476098 525
177527 577160 470
579918 941279 525
309356 971108 525
114727 174790 383
186659 651721 509
709222 169105 509
311056 731712 509
438381 580362 470
923687 500896 525
679278 548543 509
15671 868682 525
184461 826120 509
1346 348868 443
633017 655795 416
172289 597627 470
803930 645063 504
792320 123495 509
483460 735323 509
21741 627757 509
233714 670405 509
993974 202011 525
990837 133262 525
753109 505492 509
966447 202830 525
222684 848637 525
636925 601807 509
291480 387498 441
378384 156421 443
357950 939366 525
500008 321984 449
751581 913985 525
814129 565002 509
64391 863620 525
446925 672033 509
544291 264680 470
389084 760090 509
129008 631028 509
511170 382256 449
963072 34761 525
808959 455374 509
869527 874585 432
222513 325248 443
426479 469930 444
4103 231999 443
434154 402137 449
561701 845687 525
657104 96013 509
983105 408980 525
294971 975523 525
676737 406963 509
915767 258371 525
515341 609831 452
595531 697538 509
825319 429939 509
149026 407778 443
116588 542304 470
116848 139696 344
916854 944292 507
601575 866784 525
56870 169881 383
972122 165283 525
570044 785592 509
731615 937459 525
893244 984129 507
95535 445553 449
754198 882418 525
244306 836373 509
835563 509379 509
278326 833925 509
445149 755126 509
741111 596757 509
952816 884449 507
956904 83208 525
378797 658280 509
67364 995666 525
322591 658117 509
265353 604468 470
417678 296870 449
87452 906067 525
32973 443148 449
156032 778471 509
503232 273942 449
321023 12551 443
404654 469307 449
786241 552951 509
366523 823885 509
571682 437885 470
154849 535274 470
155207 463040 449
221733 176039 386
59245 477657 449
835959 181347 509
458052 58956 449
737350 906584 525
728625 557567 509
867419 91329 525
257782 353826 441
347233 953464 525
237599 985737 525
575410 400086 470
597095 644927 509
42713 677292 509
485269 373603 449
995323 491826 525
195427 402603 443
670651 167833 509
924160 618998 525
940784 584715 525
937883 164849 525
635813 288270 509
803017 189143 509
10154 634071 509
410207 359052 449
642063 66674 509
127693 446550 449
560331 91188 470
827150 48169 509
353760 655108 509
45966 852394 525
579346 465588 470
456121 700975 509
921874 190847 525
662531 469717 509
921794 22857 525
1393 401436 443
831658 150081 509
126756 795785 509
1818 394105 443
266912 477665 449
849567 282381 525
228825 341749 443
22804 930599 525
756348 417694 509
737286 74909 509
805718 888644 525
965397 41706 525
485029 510177 426
830783 316231 509
854694 161801 525
617212 897441 525
612365 981061 525
895164 867399 445
949382 627400 525
568773 557807 421
107352 674371 509
272275 172424 443
541496 810813 509
456003 275588 449
507389 185971 449
498024 723616 509
322065 431585 449
296506 967684 525
107446 276408 443
77203 470790 449
96374 85944 333
17025 839249 525
